[
  {
    "city": "SIN-Singapore",
    "availableFromRange": [],
    "availableToRange": [],
    "availableClass": [],
    "cities": [
      {
        "image": "../../assets/images/fare-london.png",
        "shareurl": "/en_UK/sg/special-offers/flight-from-Singapore-to-Kuala-Lumpur_217675/",
        "destinationCountryName": "England",
        "destinationCityName": "London",
        "currency": "SGD",
        "price": "158",
        "tripType": "",
        "cabinDesc": "Economy",
        "fromLabel": "from",
        "appOnlyFare": false,
        "exclusiveFareDeal": 0,
        "hasFavourites": false,
        "favouriteCityExpired": false,
        "newFareDeal": false
      },
      {
        "image": "../../assets/images/fare-phuket.png",
        "shareurl": "/en_UK/sg/special-offers/flight-from-Singapore-to-Jakarta_240762/",
        "destinationCountryName": "thailand",
        "destinationCityName": "Phuket",
        "currency": "SGD",
        "price": "198",
        "tripType": "",
        "cabinDesc": "Economy",
        "fromLabel": "from",
        "appOnlyFare": false,
        "exclusiveFareDeal": 0,
        "hasFavourites": false,
        "favouriteCityExpired": false,
        "newFareDeal": false
      },
      {
        "image": "../../assets/images/fare-roma.png",
        "shareurl": "/en_UK/sg/special-offers/flight-from-Singapore-to-Ho-Chi-Minh-City_240761/",
        "destinationCountryName": "italy",
        "destinationCityName": "Rome",
        "currency": "SGD",
        "price": "228",
        "tripType": "",
        "cabinDesc": "Economy",
        "fromLabel": "from",
        "appOnlyFare": false,
        "exclusiveFareDeal": 0,
        "hasFavourites": false,
        "favouriteCityExpired": false,
        "newFareDeal": false,
        "excluesive": "INCLUDES APP <br> EXCLUSIVE DEALS"
      },
      {
        "image": "../../assets/images/fare-paris.png",
        "shareurl": "/en_UK/sg/special-offers/flight-from-Singapore-to-Bangkok_240764/",
        "destinationCountryName": "france",
        "destinationCityName": "Paris",
        "currency": "SGD",
        "price": "248",
        "tripType": "",
        "cabinDesc": "Economy",
        "fromLabel": "from",
        "appOnlyFare": false,
        "exclusiveFareDeal": 0,
        "hasFavourites": false,
        "favouriteCityExpired": false,
        "newFareDeal": false,
        "excluesive": "INCLUDES APP <br> EXCLUSIVE DEALS"
      },
      {
        "image": "../../assets/images/fare-newyork.png",
        "shareurl": "/en_UK/sg/special-offers/flight-from-Singapore-to-Hanoi_240763/",
        "destinationCountryName": "u.s.a",
        "destinationCityName": "New York",
        "currency": "SGD",
        "price": "258",
        "tripType": "",
        "cabinDesc": "Economy",
        "fromLabel": "from",
        "appOnlyFare": false,
        "exclusiveFareDeal": 0,
        "hasFavourites": false,
        "favouriteCityExpired": false,
        "newFareDeal": false,
        "excluesiveTag": "INCLUDES <br> EXCLUSIVE DEALS"
      },
      {
        "image": "../../assets/images/fare-sanfancisco.png",
        "shareurl": "/en_UK/sg/special-offers/flight-from-Singapore-to-Denpasar-Bali_240766/",
        "destinationCountryName": "u.s.a",
        "destinationCityName": "San Fancisco",
        "currency": "SGD",
        "price": "268",
        "tripType": "",
        "cabinDesc": "Economy",
        "fromLabel": "from",
        "appOnlyFare": false,
        "exclusiveFareDeal": 0,
        "hasFavourites": false,
        "favouriteCityExpired": false,
        "newFareDeal": false
      }
    ],
    "paramFlow": false,
    "firstFavorite": false,
    "viewMore": {
      "text": "view more deals",
      "link": "#",
      "target": "_sefl"
    }
  }
]