{
	"firstLevelNavigationContainer": [
		{
			"title": "Searchflights",
			"linkTypeContainer": {
				"link": "/plan-and-book/your-booking/searchflight/",
				"targetType": "_self"
			},
			"deviceDisplay": "mobile"
		},
		{
			"title": "Plan travel",
			"linkTypeContainer": {
				"link": "/sg/plan-travel/",
				"targetType": "_self"
			},
			"secondLevelNavigationContainer": [
				{
					"title": "Promotions",
					"linkImage": "/saar5/images/navigation/plan-travel/promotions-land.jpg",
					"linkTypeContainer": {
						"link": "/sg/plan-travel/promotions/",
						"targetType": "_self"
					},
					"userDisplay": [
						"KF"
					],
					"thirdLevelNavigationContainer": [
						{
							"title": "Faredeals",
							"linkImage": "/saar5/images/navigation/plan-travel/promotions/promotions-fares.jpg",
							"linkTypeContainer": {
								"link": "/promotions/localFareDeals/",
								"targetType": "_self"
							},
							"userDisplay": []
						},
						{
							"title": "OtherKrisFlyerpromotions",
							"linkImage": "/saar5/images/navigation/plan-travel/promotions/kf-promotions.jpg",
							"linkTypeContainer": {
								"link": "/sg/plan-travel/promotions/kf-promotions/",
								"targetType": "_self"
							},
							"allowedCountry": [
								"SG"
							]
						},
						{
							"title": "Hotels",
							"linkImage": "/saar5/images/plan-travel/promotions/hotel-deals/navigation-hotel.jpg",
							"linkTypeContainer": {
								"link": "/sg/plan-travel/promotions/hotel/",
								"targetType": "_self"
							},
							"userDisplay": [
								"KF"
							],
							"restrictedCountry": [
								"CN",
								"JP"
							]
						},
						{
							"title": "ExcessBaggagePromotion",
							"linkImage": "/saar5/images/Promotions/mi/excess_baggage_yellow-436x242.jpg",
							"linkTypeContainer": {
								"link": "/sg/plan-travel/promotions/mi-excess-baggage-promov1/",
								"targetType": "_self"
							},
							"userDisplay": [
								"KF"
							]
						},
						{
							"title": "Carrentals",
							"linkImage": "/saar5/images/plan-travel/promotions/hotel-deals/navigation-car.jpg",
							"linkTypeContainer": {
								"link": "/sg/plan-travel/promotions/cars/",
								"targetType": "_self"
							},
							"userDisplay": [
								"KF"
							]
						},
						{
							"title": "Traveladd-ons",
							"linkImage": "/saar5/images/navigation/plan-travel/promotions/promotions-hotels.jpg",
							"linkTypeContainer": {
								"link": "/sg/plan-travel/promotions/travel-add-ons/",
								"targetType": "_self"
							}
						}
					]
				},
				{
					"title": "Destinations",
					"linkImage": "/saar5/images/navigation/plan-travel/destinations/nav-destination.jpg",
					"linkTypeContainer": {
						"link": "/sg/plan-travel/destinations/",
						"targetType": "_self"
					},
					"userDisplay": [
						"KF"
					],
					"thirdLevelNavigationContainer": {
						"title": "Alldestinations",
						"linkImage": "/saar5/images/navigation/plan-travel/destinations/nav-destination.jpg",
						"linkTypeContainer": {
							"link": "/sg/plan-travel/destinations/",
							"targetType": "_self"
						}
					}
				},
				{
					"title": "Packages",
					"linkImage": "/saar5/images/navigation/plan-travel/packages-land.jpg",
					"linkTypeContainer": {
						"link": "/sg/plan-travel/packages/",
						"targetType": "_self"
					},
					"userDisplay": [
						"KF"
					],
					"thirdLevelNavigationContainer": [
						{
							"title": "SingaporeStopoverHoliday",
							"linkImage": "/saar5/images/navigation/plan-travel/packages/singapore-stopover-holiday.jpg",
							"linkTypeContainer": {
								"link": "/sg/plan-travel/packages/singapore-stopover-holiday/",
								"targetType": "_self"
							}
						},
						{
							"title": "SingaporeExplorerPass",
							"linkImage": "/saar5/images/navigation/plan-travel/packages/sg-explorer-pass.jpg",
							"linkTypeContainer": {
								"link": "/sg/plan-travel/packages/singapore-explorer-pass/",
								"targetType": "_self"
							}
						},
						{
							"title": "SingaporeAirlinesHolidays",
							"linkImage": "/saar5/images/navigation/plan-travel/packages/sia-holidays.jpg",
							"linkTypeContainer": {
								"link": "/sg/plan-travel/packages/sia-holidays/",
								"targetType": "_self"
							}
						}
					]
				},
				{
					"title": "Privileges",
					"linkImage": "/saar5/images/navigation/plan-travel/privileges/privileges-land.jpg",
					"linkTypeContainer": {
						"link": "/sg/plan-travel/privileges/",
						"targetType": "_self"
					},
					"userDisplay": [
						"KF"
					],
					"thirdLevelNavigationContainer": [
						{
							"title": "BoardingPassPrivileges",
							"linkImage": "/saar5/images/navigation/plan-travel/privileges/sia-boarding-pass.jpg",
							"linkTypeContainer": {
								"link": "/sg/plan-travel/privileges/boarding-pass-privileges/",
								"targetType": "_self"
							}
						},
						{
							"title": "FreeSingaporeTour",
							"linkImage": "/saar5/images/navigation/plan-travel/privileges/free-singapore-tour.jpg",
							"linkTypeContainer": {
								"link": "/sg/plan-travel/privileges/free-singapore-tour/",
								"targetType": "_self"
							}
						},
						{
							"title": "SIAHop-onBus",
							"linkImage": "/saar5/images/navigation/plan-travel/privileges/sia-hop-on-bus.jpg",
							"linkTypeContainer": {
								"link": "/sg/plan-travel/privileges/sia-hop-on-bus/",
								"targetType": "_self"
							}
						},
						{
							"title": "ChangiTransitProgramme",
							"linkImage": "/saar5/images/navigation/plan-travel/privileges/changi-transit-programm.jpg",
							"linkTypeContainer": {
								"link": "/sg/plan-travel/privileges/changi-transit-programme/",
								"targetType": "_self"
							}
						},
						{
							"title": "Travelinsurance",
							"linkImage": "/saar5/images/navigation/plan-travel/privileges/travel-insurance.jpg",
							"linkTypeContainer": {
								"link": "/sg/plan-travel/privileges/travel-insurance/",
								"targetType": "_self"
							}
						}
					]
				},
				{
					"title": "Yourbooking",
					"linkImage": "/saar5/images/navigation/plan-travel/your-booking/your-booking.jpg",
					"linkTypeContainer": {
						"link": "/plan-and-book/yourbooking/",
						"targetType": "_self"
					},
					"userDisplay": [
						"KF"
					],
					"thirdLevelNavigationContainer": [
						{
							"title": "Newfaretypes",
							"linkImage": "/saar5/images/plan-travel/faretypes/thumbnail-faretype.jpg",
							"linkTypeContainer": {
								"link": "/sg/flying-withus/fare-types/",
								"targetType": "_self"
							},
							"userDisplay": [
								"KF"
							]
						},
						{
							"title": "Searchflights",
							"linkImage": "/saar5/images/navigation/plan-travel/your-booking/search-flights.jpg",
							"linkTypeContainer": {
								"link": "/plan-and-book/your-booking/searchflight/",
								"targetType": "_self"
							}
						},
						{
							"title": "Checkin",
							"linkImage": "/saar5/images/navigation/plan-travel/your-booking/check-in-nav.jpg",
							"linkTypeContainer": {
								"link": "/plan-and-book/your-booking/checkin/",
								"targetType": "_self"
							}
						},
						{
							"title": "Managebooking",
							"linkImage": "/saar5/images/navigation/plan-travel/your-booking/manage-booking-nav.jpg",
							"linkTypeContainer": {
								"link": "/plan-and-book/your-booking/managebooking/",
								"targetType": "_self"
							}
						},
						{
							"title": "mySQupgrade",
							"linkImage": "/saar5/images/plan-travel/mySQUpgarde/mysqupgrade-navigation.jpg",
							"linkTypeContainer": {
								"link": "/sg/plan-travel/yourbooking/mysqupgrade/",
								"targetType": "_self"
							},
							"userDisplay": [
								"KF"
							]
						},
						{
							"title": "Flightstatus",
							"linkImage": "/saar5/images/navigation/plan-travel/your-booking/flight-status.jpg",
							"linkTypeContainer": {
								"link": "/plan-and-book/your-booking/flightstatus/",
								"targetType": "_self"
							}
						},
						{
							"title": "Flightschedules",
							"linkImage": "/saar5/images/navigation/plan-travel/your-booking/flight-schedules.jpg",
							"linkTypeContainer": {
								"link": "/plan-and-book/your-booking/flightschedule/",
								"targetType": "_self"
							}
						},
						{
							"title": "Ticketsandreceipts",
							"linkImage": "/saar5/images/global/ecd/tickets-and-receipts-navigation-thumbnail.jpg",
							"linkTypeContainer": {
								"link": "/plan-and-book/tickets-and-receipts/",
								"targetType": "_self"
							}
						},
						{
							"title": "Grouptravel",
							"linkImage": "/saar5/images/global/ecd/navigation-grouptravel.jpg",
							"linkTypeContainer": {
								"link": "/sg/plan-travel/yourbooking/group-travel/",
								"targetType": "_self"
							},
							"userDisplay": [
								"KF"
							]
						}
					]
				},
				{
					"title": "Intercitytransfers",
					"linkImage": "/saar5/images/navigation/plan-travel/intercity-transfers/intercity-transfer-nav.jpg",
					"linkTypeContainer": {
						"link": "/sg/plan-travel/intercity-transfers/",
						"targetType": "_self"
					},
					"userDisplay": [
						"KF"
					],
					"thirdLevelNavigationContainer": [
						{
							"title": "Rail-Fly",
							"linkImage": "/saar5/images/navigation/plan-travel/intercity-transfers/navigation-railfly.jpg",
							"linkTypeContainer": {
								"link": "/plan-travel/intercity-transfers/rail-fly/",
								"targetType": "_self"
							}
						},
						{
							"title": "Coach-Fly",
							"linkImage": "/saar5/images/navigation/plan-travel/intercity-transfers/navigation-coachfly.jpg",
							"linkTypeContainer": {
								"link": "/plan-travel/intercity-transfers/coach-fly/",
								"targetType": "_self"
							}
						}
					]
				},
				{
					"title": "Privatejetconnections",
					"linkImage": "/saar5/images/navigation/plan-travel/intercity-transfers/intercity-transfer-nav2.jpg",
					"linkTypeContainer": {
						"link": "/sg/plan-travel/private-jet-connections/",
						"targetType": "_self"
					},
					"userDisplay": [
						"KF"
					],
					"thirdLevelNavigationContainer": {
						"title": "Astonjet",
						"linkImage": "/saar5/images/plan-travel/intercity-transfers/intercity-transfer-nav3.jpg",
						"linkTypeContainer": {
							"link": "/sg/plan-travel/private-jet-connections/astonjet/",
							"targetType": "_self"
						}
					}
				}
			]
		},
		{
			"title": "Flying with us",
			"allowedCountry": [
				"SG"
			],
			"linkTypeContainer": {
				"link": "/sg/flying-withus/",
				"targetType": "_self"
			},
			"secondLevelNavigationContainer": [
				{
					"title": "Ourstory",
					"linkImage": "/saar5/images/navigation/flying-withus/our-story.jpg",
					"linkTypeContainer": {
						"link": "/sg/flying-withus/our-story/",
						"targetType": "_self"
					},
					"userDisplay": [
						"KF"
					],
					"thirdLevelNavigationContainer": [
						{
							"title": "Ourheritage",
							"linkImage": "/saar5/images/navigation/flying-withus/our-story/our-heritage.jpg",
							"linkTypeContainer": {
								"link": "/sg/flying-withus/our-story/our-heritage/",
								"targetType": "_self"
							}
						},
						{
							"title": "TheSingaporeGirl",
							"linkImage": "/saar5/images/navigation/flying-withus/our-story/singapore-girl.jpg",
							"linkTypeContainer": {
								"link": "/sg/flying-withus/our-story/singapore-girl/",
								"targetType": "_self"
							}
						},
						{
							"title": "Ourfleet",
							"linkImage": "/saar5/images/navigation/flying-withus/our-fleet/boeing-787-10.jpg",
							"linkTypeContainer": {
								"link": "/sg/flying-withus/our-story/our-fleet/",
								"targetType": "_self"
							},
							"fourthLevelNavigationContainer": [
								{
									"title": "AirbusA330-300",
									"linkImage": "/saar5/images/navigation/flying-withus/our-fleet/airbus-a330-300-nav.jpg",
									"linkTypeContainer": {
										"link": "/sg/flying-withus/our-story/our-fleet/airbus-a330-300/",
										"targetType": "_self"
									}
								},
								{
									"title": "AirbusA350-900",
									"linkImage": "/saar5/images/navigation/flying-withus/our-fleet/airbus-a350-900-nav.jpg",
									"linkTypeContainer": {
										"link": "/sg/flying-withus/our-story/our-fleet/airbus-a350-900/",
										"targetType": "_self"
									}
								},
								{
									"title": "AirbusA380-800",
									"linkImage": "/saar5/images/navigation/flying-withus/our-fleet/airbus-a380-800-nav.jpg",
									"linkTypeContainer": {
										"link": "/sg/flying-withus/our-story/our-fleet/airbus-a380-800/",
										"targetType": "_self"
									}
								},
								{
									"title": "Boeing777-200",
									"linkImage": "/saar5/images/navigation/flying-withus/our-fleet/boeing-777-200-nav.jpg",
									"linkTypeContainer": {
										"link": "/sg/flying-withus/our-story/our-fleet/boeing-777-200/",
										"targetType": "_self"
									}
								},
								{
									"title": "Boeing777-200ER",
									"linkImage": "/saar5/images/navigation/flying-withus/our-fleet/boeing-777-200er-nav.jpg",
									"linkTypeContainer": {
										"link": "/sg/flying-withus/our-story/our-fleet/boeing-777-200er/",
										"targetType": "_self"
									}
								},
								{
									"title": "Boeing777-300",
									"linkImage": "/saar5/images/navigation/flying-withus/our-fleet/boeing-777-300.jpg",
									"linkTypeContainer": {
										"link": "/sg/flying-withus/our-story/our-fleet/boeing-777-300/",
										"targetType": "_self"
									}
								},
								{
									"title": "Boeing777-300ER",
									"linkImage": "/saar5/images/navigation/flying-withus/our-fleet/boeing-777-300er.jpg",
									"linkTypeContainer": {
										"link": "/sg/flying-withus/our-story/our-fleet/boeing-777-300er/",
										"targetType": "_self"
									}
								},
								{
									"title": "Boeing787-10",
									"linkImage": "/saar5/images/navigation/flying-withus/our-fleet/boeing-787-10.jpg",
									"linkTypeContainer": {
										"link": "/sg/flying-withus/our-story/our-fleet/boeing-787-10/",
										"targetType": "_self"
									}
								}
							]
						},
						{
							"title": "Makingeveryjourneypersonal",
							"linkImage": "/saar5/images/navigation/flying-withus/our-story/making-every-journey-personal-navigation-banner.jpg",
							"linkTypeContainer": {
								"link": "/sg/flying-withus/our-story/making-every-journey-personal/",
								"targetType": "_self"
							}
						},
						{
							"title": "Oursubsidiaries",
							"linkImage": "/saar5/images/navigation/flying-withus/our-story/our-subsidiaries.jpg",
							"linkTypeContainer": {
								"link": "/sg/flying-withus/our-story/our-subsidiaries/",
								"targetType": "_self"
							}
						},
						{
							"title": "Givingback",
							"linkImage": "/saar5/images/navigation/flying-withus/giving-back-land.jpg",
							"linkTypeContainer": {
								"link": "/sg/flying-withus/our-story/giving-back/",
								"targetType": "_self"
							},
							"fourthLevelNavigationContainer": [
								{
									"title": "Arts,education&sports",
									"linkImage": "/saar5/images/navigation/flying-withus/giving-back/arts-edu-sports.jpg",
									"linkTypeContainer": {
										"link": "/sg/flying-withus/our-story/giving-back/arts-education-sports/",
										"targetType": "_self"
									}
								},
								{
									"title": "Environmentalefforts",
									"linkImage": "/saar5/images/navigation/flying-withus/giving-back/environmental-efforts.jpg",
									"linkTypeContainer": {
										"link": "/sg/flying-withus/our-story/giving-back/environmental-efforts/",
										"targetType": "_self"
									}
								}
							]
						},
						{
							"title": "Awards",
							"linkImage": "/saar5/images/navigation/flying-withus/our-story/awards.jpg",
							"linkTypeContainer": {
								"link": "/sg/flying-withus/our-story/awards/",
								"targetType": "_self"
							}
						}
					]
				},
				{
					"title": "Beforetheflight",
					"linkImage": "/saar5/images/navigation/flying-withus/before-the-flight-land.jpg",
					"linkTypeContainer": {
						"link": "/sg/flying-withus/before-the-flight/",
						"targetType": "_self"
					},
					"userDisplay": [
						"KF",
						"SQC"
					],
					"travelType": "corporateTravel,travelManager,preloginView",
					"thirdLevelNavigationContainer": [
						{
							"title": "Lounges",
							"linkImage": "/saar5/images/navigation/flying-withus/before-the-flight/lounges-land.jpg",
							"linkTypeContainer": {
								"link": "/sg/flying-withus/before-the-flight/lounges/",
								"targetType": "_self"
							},
							"fourthLevelNavigationContainer": [
								{
									"title": "FirstClassCheck-inReception",
									"linkImage": "/saar5/images/navigation/flying-withus/before-the-flight/first-class-check-in-reception.jpg",
									"linkTypeContainer": {
										"link": "/sg/flying-withus/before-the-flight/lounges/firstclass-checkin/",
										"targetType": "_self"
									}
								},
								{
									"title": "SilverKrisLounge",
									"linkImage": "/saar5/images/navigation/flying-withus/before-the-flight/silverkris-lounge.jpg",
									"linkTypeContainer": {
										"link": "/sg/flying-withus/before-the-flight/lounges/silverkris/",
										"targetType": "_self"
									}
								},
								{
									"title": "KrisFlyerGoldLounge",
									"linkImage": "/saar5/images/navigation/flying-withus/before-the-flight/krisflyer-gold-lounge.jpg",
									"linkTypeContainer": {
										"link": "/sg/flying-withus/before-the-flight/lounges/krisflyergold/",
										"targetType": "_self"
									}
								},
								{
									"title": "Airlinepartnerlounges",
									"linkImage": "/saar5/images/navigation/flying-withus/before-the-flight/partner-lounges.jpg",
									"linkTypeContainer": {
										"link": "/sg/flying-withus/before-the-flight/lounges/partner/",
										"targetType": "_self"
									}
								}
							]
						},
						{
							"title": "ChangiAirport",
							"linkImage": "/saar5/images/navigation/flying-withus/before-the-flight/changi-airport.jpg",
							"linkTypeContainer": {
								"link": "/sg/flying-withus/before-the-flight/changi-airport/",
								"targetType": "_self"
							}
						},
						{
							"title": "KrisShop",
							"linkImage": "/saar5/images/navigation/flying-withus/before-the-flight/krishop.jpg",
							"linkTypeContainer": {
								"link": "/sg/flying-withus/before-the-flight/krisshop/",
								"targetType": "_self"
							},
							"userDisplay": [
								"KF",
								"SQC"
							],
							"travelType": "corporateTravel,travelManager,AssistantCTM,preloginView"
						},
						{
							"title": "AirportMeetandGreet",
							"linkImage": "/saar5/images/flying-withus/before-the-flight/maas-436x242.jpg",
							"linkTypeContainer": {
								"link": "/sg/flying-withus/before-the-flight/airport-meet-and-greet/",
								"targetType": "_self"
							}
						}
					]
				},
				{
					"title": "Cabins",
					"linkImage": "/saar5/images/navigation/flying-withus/cabins/Suites-2018.jpg",
					"linkTypeContainer": {
						"link": "/sg/flying-withus/cabins/",
						"targetType": "_self"
					},
					"userDisplay": [
						"KF"
					],
					"thirdLevelNavigationContainer": [
						{
							"title": "Suites",
							"linkImage": "/saar5/images/navigation/flying-withus/cabins/NewSuites1.jpg",
							"linkTypeContainer": {
								"link": "/sg/flying-withus/cabins/suites-class/",
								"targetType": "_self"
							},
							"userDisplay": [
								"KF"
							],
							"fourthLevelNavigationContainer": [
								{
									"title": "NewA380Suites",
									"linkImage": "/saar5/images/navigation/flying-withus/cabins/Suites-2018-1.jpg",
									"linkTypeContainer": {
										"link": "/sg/flying-withus/cabins/suites/new-a380-suites/",
										"targetType": "_self"
									}
								},
								{
									"title": "Suites",
									"linkImage": "/saar5/images/navigation/flying-withus/cabins/suites-land.jpg",
									"linkTypeContainer": {
										"link": "/sg/flying-withus/cabins/suites/suites/",
										"targetType": "_self"
									}
								}
							]
						},
						{
							"title": "FirstClass",
							"linkImage": "/saar5/images/navigation/flying-withus/cabins/first-class-land.jpg",
							"linkTypeContainer": {
								"link": "/sg/flying-withus/cabins/first-class/",
								"targetType": "_self"
							},
							"fourthLevelNavigationContainer": [
								{
									"title": "NewFirstClass",
									"linkImage": "/saar5/images/navigation/flying-withus/cabins/new-first-class.jpg",
									"linkTypeContainer": {
										"link": "/sg/flying-withus/cabins/first-class/new-first-class/",
										"targetType": "_self"
									}
								},
								{
									"title": "FirstClass",
									"linkImage": "/saar5/images/navigation/flying-withus/cabins/first-class-main.jpg",
									"linkTypeContainer": {
										"link": "/sg/flying-withus/cabins/first-class/first-class/",
										"targetType": "_self"
									}
								}
							]
						},
						{
							"allowedCountry": [
								"IN"
							],
							"title": "BusinessClass",
							"linkImage": "/saar5/images/navigation/flying-withus/cabins/business-class-2018-1.jpg",
							"linkTypeContainer": {
								"link": "/sg/flying-withus/cabins/business-class/",
								"targetType": "_self"
							},
							"fourthLevelNavigationContainer": [
								{
									"title": "NewA380BusinessClass",
									"linkImage": "/saar5/images/navigation/flying-withus/cabins/business-class-2018.jpg",
									"linkTypeContainer": {
										"link": "/sg/flying-withus/cabins/business-class/new-a380-business-class/",
										"targetType": "_self"
									}
								},
								{
									"title": "BusinessClass-A350-900and777-300ER",
									"linkImage": "/saar5/images/navigation/flying-withus/cabins/new-busineess-class.jpg",
									"linkTypeContainer": {
										"link": "/sg/flying-withus/cabins/business-class/business-class-2/",
										"targetType": "_self"
									}
								},
								{
									"title": "BusinessClass-A380,777-300ERand777-200ER",
									"linkImage": "/saar5/images/navigation/flying-withus/cabins/business-class-main.jpg",
									"linkTypeContainer": {
										"link": "/sg/flying-withus/cabins/business-class/business-class-1/",
										"targetType": "_self"
									}
								},
								{
									"title": "NewRegionalBusinessClass",
									"linkImage": "/saar5/images/navigation/flying-withus/cabins/New-Regional-Business-Class.jpg",
									"linkTypeContainer": {
										"link": "/sg/flying-withus/cabins/business-class/new-regional-business-class/",
										"targetType": "_self"
									}
								},
								{
									"title": "RegionalBusinessClass-A330,777-300and777-200",
									"linkImage": "/saar5/images/navigation/flying-withus/cabins/regional-business-class.jpg",
									"linkTypeContainer": {
										"link": "/sg/flying-withus/cabins/business-class/regional-business-class/",
										"targetType": "_self"
									}
								}
							]
						},
						{
							"title": "PremiumEconomyClass",
							"linkImage": "/saar5/images/navigation/flying-withus/cabins/premium-economy-class.jpg",
							"linkTypeContainer": {
								"link": "/sg/flying-withus/cabins/premium-economy-class/",
								"targetType": "_self"
							}
						},
						{
							"title": "EconomyClass",
							"linkImage": "/saar5/images/navigation/flying-withus/cabins/Economy-Class-2018-1.jpg",
							"linkTypeContainer": {
								"link": "/sg/flying-withus/cabins/economy-class/",
								"targetType": "_self"
							},
							"fourthLevelNavigationContainer": [
								{
									"title": "NewEconomyClass",
									"linkImage": "/saar5/images/navigation/flying-withus/cabins/Economy-Class-2018-2.jpg",
									"linkTypeContainer": {
										"link": "/sg/flying-withus/cabins/economy-class/new-economy-class/",
										"targetType": "_self"
									}
								},
								{
									"title": "EconomyClass-A350-900and777-300ER",
									"linkImage": "/saar5/images/navigation/flying-withus/cabins/new-economy-class.jpg",
									"linkTypeContainer": {
										"link": "/sg/flying-withus/cabins/economy-class/economy-class-1/",
										"targetType": "_self"
									}
								},
								{
									"title": "EconomyClass-A380,A330and777-300ER",
									"linkImage": "/saar5/images/navigation/flying-withus/cabins/economy-class-land-main.jpg",
									"linkTypeContainer": {
										"link": "/sg/flying-withus/cabins/economy-class/economy-class-2/",
										"targetType": "_self"
									}
								}
							]
						}
					]
				},
				{
					"title": "Dining",
					"linkImage": "/saar5/images/navigation/flying-withus/dining.jpg",
					"linkTypeContainer": {
						"link": "/sg/flying-withus/dining/",
						"targetType": "_self"
					},
					"userDisplay": [
						"KF"
					],
					"thirdLevelNavigationContainer": [
						{
							"title": "InternationalCulinaryPanel",
							"linkImage": "/saar5/images/navigation/flying-withus/dining/internation-culnary-panel.jpg",
							"linkTypeContainer": {
								"link": "/sg/flying-withus/dining/international-culinary-panel/",
								"targetType": "_self"
							}
						},
						{
							"title": "Wineexperts",
							"linkImage": "/saar5/images/navigation/flying-withus/dining/wine-experts.jpg",
							"linkTypeContainer": {
								"link": "/sg/flying-withus/dining/wine-experts/",
								"targetType": "_self"
							}
						},
						{
							"title": "BookTheCook",
							"linkImage": "/saar5/images/navigation/flying-withus/dining/book-the-cook.jpg",
							"linkTypeContainer": {
								"link": "/sg/flying-withus/dining/book-the-cook/",
								"targetType": "_self"
							}
						},
						{
							"title": "SpecialMeals",
							"linkImage": "/saar5/images/navigation/flying-withus/dining/special-meals.jpg",
							"linkTypeContainer": {
								"link": "/sg/flying-withus/dining/specialmeals/",
								"targetType": "_self"
							}
						},
						{
							"title": "Mealsforyoungpassengers",
							"linkImage": "/saar5/images/navigation/flying-withus/dining/meals-for-young-passengers.jpg",
							"linkTypeContainer": {
								"link": "/sg/flying-withus/dining/meals-for-young-passengers/",
								"targetType": "_self"
							}
						}
					]
				},
				{
					"title": "Entertainment",
					"linkImage": "/saar5/images/navigation/flying-withus/entertainment_land.jpg",
					"linkTypeContainer": {
						"link": "/sg/flying-withus/entertainment/",
						"targetType": "_self"
					},
					"userDisplay": [
						"KF"
					],
					"thirdLevelNavigationContainer": [
						{
							"title": "Movies",
							"linkImage": "/saar5/images/navigation/flying-withus/entertainment/movies.jpg",
							"linkTypeContainer": {
								"link": "/sg/flying-withus/entertainment/movies/",
								"targetType": "_self"
							}
						},
						{
							"title": "Television",
							"linkImage": "/saar5/images/navigation/flying-withus/entertainment/television.jpg",
							"linkTypeContainer": {
								"link": "/sg/flying-withus/entertainment/television/",
								"targetType": "_self"
							}
						},
						{
							"title": "Music",
							"linkImage": "/saar5/images/navigation/flying-withus/entertainment/music.jpg",
							"linkTypeContainer": {
								"link": "/sg/flying-withus/entertainment/music/",
								"targetType": "_self"
							}
						},
						{
							"title": "Gamesandapps",
							"linkImage": "/saar5/images/navigation/flying-withus/entertainment/games-and-apps.jpg",
							"linkTypeContainer": {
								"link": "/sg/flying-withus/entertainment/games-apps/",
								"targetType": "_self"
							}
						},
						{
							"title": "Inflightconnectivity",
							"linkImage": "/saar5/images/navigation/flying-withus/entertainment/inflight-connectivity.jpg",
							"linkTypeContainer": {
								"link": "/sg/flying-withus/entertainment/inflight-connectivity/",
								"targetType": "_self"
							}
						}
					]
				}
			]
		},
		{
			"title": "Travel info",
			"restrictedCountry": [
				"CN",
				"JP"
			],
			"linkTypeContainer": {
				"link": "/sg/travel-info/",
				"targetType": "_self"
			},
			"secondLevelNavigationContainer": [
				{
					"title": "Check-in",
					"linkImage": "/saar5/images/navigation/travel-info/check-in/check-in-land.jpg",
					"linkTypeContainer": {
						"link": "/sg/travel-info/check-in/",
						"targetType": "_self"
					},
					"userDisplay": [
						"KF"
					],
					"thirdLevelNavigationContainer": [
						{
							"title": "Countercheck-in",
							"linkImage": "/saar5/images/navigation/travel-info/check-in/counter-check-in.jpg",
							"linkTypeContainer": {
								"link": "/sg/travel-info/check-in/counter-checkin/",
								"targetType": "_self"
							}
						},
						{
							"title": "Online/Mobilecheck-in",
							"linkImage": "/saar5/images/navigation/travel-info/check-in/mobile-check-in.jpg",
							"linkTypeContainer": {
								"link": "/sg/travel-info/check-in/online-mobile-checkin/",
								"targetType": "_self"
							}
						},
						{
							"title": "Kioskcheck-in",
							"linkImage": "/saar5/images/navigation/travel-info/check-in/kiosk-check-in.jpg",
							"linkTypeContainer": {
								"link": "/sg/travel-info/check-in/kiosk-checkin/",
								"targetType": "_self"
							}
						},
						{
							"title": "Automatedbagdrop",
							"linkImage": "/saar5/images/travel-info/check-in/navigation-bagdrop.jpg",
							"linkTypeContainer": {
								"link": "/sg/travel-info/check-in/automated-bagdrop/",
								"targetType": "_self"
							},
							"userDisplay": [
								"KF"
							]
						},
						{
							"title": "Returncheck-in",
							"linkImage": "/saar5/images/navigation/travel-info/check-in/return-check-in.jpg",
							"linkTypeContainer": {
								"link": "/sg/travel-info/check-in/return-checkin/",
								"targetType": "_self"
							}
						},
						{
							"title": "Checkinginwithpartnerairlines",
							"linkImage": "/saar5/images/navigation/travel-info/check-in/checkin-partner-airlines.jpg",
							"linkTypeContainer": {
								"link": "/sg/travel-info/check-in/checkin-partners/",
								"targetType": "_self"
							}
						}
					]
				},
				{
					"title": "Baggage",
					"linkImage": "/saar5/images/navigation/travel-info/baggages-land.jpg",
					"linkTypeContainer": {
						"link": "/sg/travel-info/baggage/",
						"targetType": "_self"
					},
					"userDisplay": [
						"KF"
					],
					"thirdLevelNavigationContainer": [
						{
							"title": "Baggageallowance",
							"linkImage": "/saar5/images/navigation/travel-info/baggage/baggage-allowance.jpg",
							"linkTypeContainer": {
								"link": "/sg/travel-info/baggage/baggage-allowance/",
								"targetType": "_self"
							}
						},
						{
							"title": "Checkedbaggage",
							"linkImage": "/saar5/images/navigation/travel-info/baggage/checked-baggage.jpg",
							"linkTypeContainer": {
								"link": "/sg/travel-info/baggage/checked-baggage/",
								"targetType": "_self"
							}
						},
						{
							"title": "Cabinbaggage",
							"linkImage": "/saar5/images/navigation/travel-info/baggage/cabin-baggage.jpg",
							"linkTypeContainer": {
								"link": "/sg/travel-info/baggage/cabin-baggage/",
								"targetType": "_self"
							}
						},
						{
							"title": "Non-standardbaggage",
							"linkImage": "/saar5/images/navigation/travel-info/baggage/non-standard-baggage.jpg",
							"linkTypeContainer": {
								"link": "/sg/travel-info/baggage/non-standard-baggage/",
								"targetType": "_self"
							}
						},
						{
							"title": "Additionalbaggage",
							"linkImage": "/saar5/images/navigation/travel-info/baggage/additional-baggage.jpg",
							"linkTypeContainer": {
								"link": "/sg/travel-info/baggage/additional-baggage-charges/",
								"targetType": "_self"
							}
						},
						{
							"title": "Lost/Mishandledbaggage",
							"linkImage": "/saar5/images/navigation/travel-info/baggage/mishandled-baggage.jpg",
							"linkTypeContainer": {
								"link": "/sg/travel-info/baggage/lost-mishandled-baggage/",
								"targetType": "_self"
							}
						},
						{
							"title": "Restrictions",
							"linkImage": "/saar5/images/navigation/travel-info/baggage/baggage-restrictions.jpg",
							"linkTypeContainer": {
								"link": "/sg/travel-info/baggage/baggage-restrictions/",
								"targetType": "_self"
							}
						}
					]
				},
				{
					"title": "Requests",
					"linkImage": "/saar5/images/navigation/travel-info/requests-land.jpg",
					"linkTypeContainer": {
						"link": "/sg/travel-info/requests/",
						"targetType": "_self"
					},
					"userDisplay": [
						"KF"
					],
					"thirdLevelNavigationContainer": [
						{
							"title": "Seatselection",
							"linkImage": "/saar5/images/navigation/travel-info/requests/seats.jpg",
							"linkTypeContainer": {
								"link": "/sg/travel-info/requests/seats/",
								"targetType": "_self"
							}
						},
						{
							"title": "Meals",
							"linkImage": "/saar5/images/navigation/travel-info/requests/meals.jpg",
							"linkTypeContainer": {
								"link": "/sg/travel-info/requests/meals/",
								"targetType": "_self"
							}
						},
						{
							"title": "Passengerswithnutallergy",
							"linkImage": "/saar5/images/navigation/travel-info/requests/passengers-with-nut-allergy.jpg",
							"linkTypeContainer": {
								"link": "/sg/travel-info/requests/passengers-with-nut-allergy/",
								"targetType": "_self"
							}
						},
						{
							"title": "FlightDisruptionStatement",
							"linkImage": "/saar5/images/navigation/travel-info/requests/nav-thumbnail-flightdisruption.jpg",
							"linkTypeContainer": {
								"link": "/sg/travel-info/requests/flight-disruption/",
								"targetType": "_self"
							}
						}
					]
				},
				{
					"title": "Visasandimmigration",
					"linkImage": "/saar5/images/navigation/travel-info/visas-immigration-land.jpg",
					"linkTypeContainer": {
						"link": "/sg/travel-info/visas-immigration/",
						"targetType": "_self"
					},
					"userDisplay": [
						"KF"
					],
					"thirdLevelNavigationContainer": [
						{
							"title": "Requirements",
							"linkImage": "/saar5/images/navigation/travel-info/visas-immigration/requirements.jpg",
							"linkTypeContainer": {
								"link": "/sg/travel-info/visas-immigration/requirements/",
								"targetType": "_self"
							}
						},
						{
							"title": "Fasttrackservices",
							"linkImage": "/saar5/images/navigation/travel-info/visas-immigration/fast-track-services.jpg",
							"linkTypeContainer": {
								"link": "/sg/travel-info/visas-immigration/fast-track-services/",
								"targetType": "_self"
							}
						},
						{
							"title": "Customs",
							"linkImage": "/saar5/images/navigation/travel-info/customs/customs-land.jpg",
							"linkTypeContainer": {
								"link": "/sg/travel-info/visas-immigration/customs/",
								"targetType": "_self"
							},
							"fourthLevelNavigationContainer": [
								{
									"title": "Singapore",
									"linkImage": "/saar5/images/navigation/travel-info/customs/customs-singapore.jpg",
									"linkTypeContainer": {
										"link": "/sg/travel-info/visas-immigration/customs/singapore/",
										"targetType": "_self"
									}
								},
								{
									"title": "Internationalduty-free-restrictions",
									"linkImage": "/saar5/images/navigation/travel-info/customs/customs-international.jpg",
									"linkTypeContainer": {
										"link": "/sg/travel-info/visas-immigration/customs/international-duty-free-restrictions/",
										"targetType": "_self"
									}
								}
							]
						}
					]
				},
				{
					"title": "Chargesandchanges",
					"linkImage": "/saar5/images/navigation/travel-info/charges-and-changes-land.jpg",
					"linkTypeContainer": {
						"link": "/sg/travel-info/charges-changes/",
						"targetType": "_self"
					},
					"userDisplay": [
						"KF"
					],
					"thirdLevelNavigationContainer": [
						{
							"title": "Cancellationandrefunds",
							"linkImage": "/saar5/images/navigation/travel-info/charges-changes/cancellations-and-refunds.jpg",
							"linkTypeContainer": {
								"link": "/sg/travel-info/charges-changes/cancellations-refunds/",
								"targetType": "_self"
							}
						},
						{
							"title": "Taxesandservicefees",
							"linkImage": "/saar5/images/navigation/travel-info/charges-changes/tax-and-service-fees.jpg",
							"linkTypeContainer": {
								"link": "/sg/travel-info/charges-changes/taxes-service-fees/",
								"targetType": "_self"
							}
						}
					]
				},
				{
					"title": "Specialassistance",
					"linkImage": "/saar5/images/navigation/travel-info/special-assistance-land.jpg",
					"linkTypeContainer": {
						"link": "/sg/travel-info/special-assistance/",
						"targetType": "_self"
					},
					"userDisplay": [
						"KF"
					],
					"thirdLevelNavigationContainer": [
						{
							"title": "Travellingwithchildren",
							"linkImage": "/saar5/images/navigation/travel-info/special-assistance/travelling-with-children.jpg",
							"linkTypeContainer": {
								"link": "/sg/travel-info/special-assistance/travelling-with-children/",
								"targetType": "_self"
							}
						},
						{
							"title": "Unaccompaniedminors",
							"linkImage": "/saar5/images/navigation/travel-info/special-assistance/uncompanied-minors.jpg",
							"linkTypeContainer": {
								"link": "/sg/travel-info/special-assistance/unaccompanied-minors/",
								"targetType": "_self"
							}
						},
						{
							"title": "Expectantwomen",
							"linkImage": "/saar5/images/navigation/travel-info/special-assistance/expectant-woman.jpg",
							"linkTypeContainer": {
								"link": "/sg/travel-info/special-assistance/expectant-women/",
								"targetType": "_self"
							}
						},
						{
							"title": "Medicalinformation",
							"linkImage": "/saar5/images/navigation/travel-info/special-assistance/medical-information.jpg",
							"linkTypeContainer": {
								"link": "/sg/travel-info/special-assistance/medical-information/",
								"targetType": "_self"
							}
						},
						{
							"title": "Mobilityaids",
							"linkImage": "/saar5/images/navigation/travel-info/special-assistance/mobility-aids.jpg",
							"linkTypeContainer": {
								"link": "/sg/travel-info/special-assistance/mobility-aids/",
								"targetType": "_self"
							}
						},
						{
							"title": "Disabilityassistance",
							"linkImage": "/saar5/images/navigation/travel-info/special-assistance/disability-assistance.jpg",
							"linkTypeContainer": {
								"link": "/sg/travel-info/special-assistance/disability-assistance/",
								"targetType": "_self"
							}
						},
						{
							"title": "Travellingwithpets",
							"linkImage": "/saar5/images/navigation/travel-info/special-assistance/travelling-with-pets.jpg",
							"linkTypeContainer": {
								"link": "/sg/travel-info/special-assistance/travelling-with-pets/",
								"targetType": "_self"
							}
						},
						{
							"title": "MedicalTravelCompanions",
							"linkImage": "/saar5/images/navigation/travel-info/special-assistance/medical-travel-companions.jpg",
							"linkTypeContainer": {
								"link": "/sg/travel-info/special-assistance/medical-travel-companions/",
								"targetType": "_self"
							}
						},
						{
							"title": "MedicalTravelCompanions",
							"linkImage": "/saar5/images/navigation/travel-info/special-assistance/medical-travel-companions.jpg",
							"linkTypeContainer": {
								"link": "/sg/travel-info/special-assistance/medical-travel-companions/",
								"targetType": "_self"
							},
							"userDisplay": [
								"KF"
							]
						},
						{
							"title": "MedicalTravelCompanions",
							"linkImage": "/saar5/images/navigation/travel-info/special-assistance/medical-travel-companions.jpg",
							"linkTypeContainer": {
								"link": "/sg/travel-info/special-assistance/medical-travel-companions/",
								"targetType": "_self"
							}
						},
						{
							"title": "MedicalTravelCompanions",
							"linkImage": "/saar5/images/navigation/travel-info/special-assistance/medical-travel-companions.jpg",
							"linkTypeContainer": {
								"link": "/sg/travel-info/special-assistance/medical-travel-companions/",
								"targetType": "_self"
							}
						},
						{
							"title": "MedicalTravelCompanions",
							"linkImage": "/saar5/images/navigation/travel-info/special-assistance/medical-travel-companions.jpg",
							"linkTypeContainer": {
								"link": "/sg/travel-info/special-assistance/medical-travel-companions/",
								"targetType": "_self"
							}
						},
						{
							"title": "MedicalTravelCompanions",
							"linkImage": "/saar5/images/navigation/travel-info/special-assistance/medical-travel-companions.jpg",
							"linkTypeContainer": {
								"link": "/sg/travel-info/special-assistance/medical-travel-companions/",
								"targetType": "_self"
							}
						},
						{
							"title": "MedicalTravelCompanions",
							"linkImage": "$SAA_IMG_URL_PREFIX[]/saar5/images/navigation/travel-info/special-assistance/medical-travel-companions.jpg",
							"linkTypeContainer": {
								"link": "/sg/travel-info/special-assistance/medical-travel-companions/",
								"targetType": "_self"
							},
							"userDisplay": [
								"KF"
							]
						},
						{
							"title": "MedicalTravelCompanions",
							"linkImage": "$SAA_IMG_URL_PREFIX[]/saar5/images/navigation/travel-info/special-assistance/medical-travel-companions.jpg",
							"linkTypeContainer": {
								"link": "/sg/travel-info/special-assistance/medical-travel-companions/",
								"targetType": "_self"
							},
							"userDisplay": [
								"KF"
							]
						},
						{
							"title": "MedicalTravelCompanions",
							"linkImage": "$SAA_IMG_URL_PREFIX[]/saar5/images/navigation/travel-info/special-assistance/medical-travel-companions.jpg",
							"linkTypeContainer": {
								"link": "/sg/travel-info/special-assistance/medical-travel-companions/",
								"targetType": "_self"
							},
							"userDisplay": [
								"KF"
							]
						},
						{
							"title": "MedicalTravelCompanions",
							"linkImage": "$SAA_IMG_URL_PREFIX[]/saar5/images/navigation/travel-info/special-assistance/medical-travel-companions.jpg",
							"linkTypeContainer": {
								"link": "/sg/travel-info/special-assistance/medical-travel-companions/",
								"targetType": "_self"
							},
							"userDisplay": [
								"KF"
							]
						},
						{
							"title": "MedicalTravelCompanions",
							"linkImage": "$SAA_IMG_URL_PREFIX[]/saar5/images/navigation/travel-info/special-assistance/medical-travel-companions.jpg",
							"linkTypeContainer": {
								"link": "/sg/travel-info/special-assistance/medical-travel-companions/",
								"targetType": "_self"
							},
							"userDisplay": [
								"KF"
							]
						},
						{
							"title": "MedicalTravelCompanions",
							"linkImage": "$SAA_IMG_URL_PREFIX[]/saar5/images/navigation/travel-info/special-assistance/medical-travel-companions.jpg",
							"linkTypeContainer": {
								"link": "/sg/travel-info/special-assistance/medical-travel-companions/",
								"targetType": "_self"
							},
							"userDisplay": [
								"KF"
							]
						},
						{
							"restrictionOption": "country",
							"title": "MedicalTravelCompanions",
							"linkImage": "$SAA_IMG_URL_PREFIX[]/saar5/images/navigation/travel-info/special-assistance/medical-travel-companions.jpg",
							"linkTypeContainer": {
								"link": "/sg/travel-info/special-assistance/medical-travel-companions/",
								"targetType": "_self"
							},
							"userDisplay": [
								"KF"
							]
						}
					]
				},
				{
					"title": "Customercommitment",
					"linkImage": "$SAA_IMG_URL_PREFIX[]/saar5/images/navigation/travel-info/customer-commitment-land.jpg",
					"linkTypeContainer": {
						"link": "/sg/travel-info/customer-commitment/",
						"targetType": "_self"
					},
					"userDisplay": [
						"KF"
					],
					"thirdLevelNavigationContainer": [
						{
							"title": "Delaycontingencyplans",
							"linkImage": "$SAA_IMG_URL_PREFIX[]/saar5/images/navigation/travel-info/customer-commitment/delay-contingency-plans.jpg",
							"linkTypeContainer": {
								"link": "/sg/travel-info/customer-commitment/tarmac-delay-contingency-plan/",
								"targetType": "_self"
							}
						},
						{
							"title": "Customerserviceplan",
							"linkImage": "$SAA_IMG_URL_PREFIX[]/saar5/images/navigation/travel-info/customer-commitment/customet-commitment.jpg",
							"linkTypeContainer": {
								"link": "/sg/travel-info/customer-commitment/customer-service-plan/",
								"targetType": "_self"
							}
						}
					]
				},
				{
					"title": "Subsidiaryairlines",
					"linkImage": "$SAA_IMG_URL_PREFIX[]/saar5/images/navigation/travel-info/partner-airlines/partner-airlines.jpg",
					"linkTypeContainer": {
						"link": "/sg/travel-info/subsidiary-airlines/",
						"targetType": "_self"
					},
					"userDisplay": [
						"KF"
					],
					"thirdLevelNavigationContainer": [
						{
							"title": "SilkAir",
							"linkImage": "$SAA_IMG_URL_PREFIX[]/saar5/images/navigation/travel-info/partner-airlines/partner-airlines-silkair.png",
							"linkTypeContainer": {
								"link": "/sg/travel-info/subsidiary-airlines/silkair/",
								"targetType": "_self"
							}
						},
						{
							"title": "Scoot",
							"linkImage": "$SAA_IMG_URL_PREFIX[]/saar5/images/travel-info/partner-airlines/scoot-partnerair-navigation-thumbnail.jpg",
							"linkTypeContainer": {
								"link": "/sg/travel-info/subsidiary-airlines/scoot/",
								"targetType": "_self"
							}
						},
						{
							"title": "Tigerair",
							"linkImage": "$SAA_IMG_URL_PREFIX[]/saar5/images/travel-info/subsidiary-airlines/tigerair-thumbnail.jpg",
							"linkTypeContainer": {
								"link": "/sg/travel-info/subsidiary-airlines/tigerair/",
								"targetType": "_self"
							}
						}
					]
				},
				{
					"title": "Partnerairlines",
					"linkImage": "$SAA_IMG_URL_PREFIX[]/saar5/images/navigation/travel-info/partner-airlines/partner-airlines.jpg",
					"linkTypeContainer": {
						"link": "/sg/travel-info/partner-airlines/",
						"targetType": "_self"
					},
					"userDisplay": [
						"KF"
					],
					"thirdLevelNavigationContainer": [
						{
							"title": "SilkAir",
							"linkImage": "$SAA_IMG_URL_PREFIX[]/saar5/images/navigation/travel-info/partner-airlines/partner-airlines-silkair.png",
							"linkTypeContainer": {
								"link": "/sg/travel-info/partner-airlines/silkair/",
								"targetType": "_self"
							}
						},
						{
							"title": "Scoot",
							"linkImage": "$SAA_IMG_URL_PREFIX[]/saar5/images/travel-info/partner-airlines/scoot-partnerair-navigation-thumbnail.jpg",
							"linkTypeContainer": {
								"link": "/sg/travel-info/partner-airlines/scoot/",
								"targetType": "_self"
							}
						},
						{
							"title": "VirginAustralia",
							"linkImage": "$SAA_IMG_URL_PREFIX[]/saar5/images/navigation/travel-info/partner-airlines/virgin-australia.jpg",
							"linkTypeContainer": {
								"link": "/sg/travel-info/partner-airlines/virgin-australia/",
								"targetType": "_self"
							}
						},
						{
							"title": "AirNewZealand",
							"linkImage": "$SAA_IMG_URL_PREFIX[]/saar5/images/navigation/travel-info/partner-airlines/partner-air-newzealand.jpg",
							"linkTypeContainer": {
								"link": "/sg/travel-info/partner-airlines/air-newzealand/",
								"targetType": "_self"
							}
						},
						{
							"title": "StarAlliance",
							"linkImage": "$SAA_IMG_URL_PREFIX[]/saar5/images/navigation/travel-info/partner-airlines/star-alliance.jpg",
							"linkTypeContainer": {
								"link": "/sg/travel-info/partner-airlines/star-alliance/",
								"targetType": "_self"
							}
						},
						{
							"title": "Ourotherpartners",
							"linkImage": "$SAA_IMG_URL_PREFIX[]/saar5/images/navigation/travel-info/partner-airlines/our-other-partner-airlines.jpg",
							"linkTypeContainer": {
								"link": "/sg/travel-info/partner-airlines/our-other-partners/",
								"targetType": "_self"
							}
						},
						{
							"title": "FlightstoandfromtheUSA",
							"linkImage": "$SAA_IMG_URL_PREFIX[]/saar5/images/navigation/travel-info/partner-airlines/flights-from-and-to-usa.jpg",
							"linkTypeContainer": {
								"link": "/sg/travel-info/partner-airlines/flights-to-from-the-usa/",
								"targetType": "_self"
							}
						},
						{
							"title": "LufthansaGroup",
							"linkImage": "$SAA_IMG_URL_PREFIX[]/saar5/images/navigation/travel-info/partner-airlines/partner-lufthansa.jpg",
							"linkTypeContainer": {
								"link": "/sg/travel-info/partner-airlines/lufthansa/",
								"targetType": "_self"
							},
							"userDisplay": [
								"KF"
							]
						}
					]
				}
			]
		},
		{
			"title": "PPS Club / KrisFlyer",
			"linkTypeContainer": {
				"link": "/sg/ppsclub-krisflyer/",
				"targetType": "_self"
			},
			"secondLevelNavigationContainer": [
				{
					"title": "PPSClub",
					"linkImage": "$SAA_IMG_URL_PREFIX[]/saar5/images/navigation/ppsclub-krisflyer/pps-club/ppsclub.jpg",
					"linkTypeContainer": {
						"link": "/sg/ppsclub-krisflyer/ppsclub/",
						"targetType": "_self"
					},
					"userDisplay": [
						"KF"
					],
					"thirdLevelNavigationContainer": [
						{
							"title": "ThePPSClub",
							"linkImage": "$SAA_IMG_URL_PREFIX[]/saar5/images/navigation/ppsclub-krisflyer/pps-club/ppsclub-theppsclub.jpg",
							"linkTypeContainer": {
								"link": "/sg/ppsclub-krisflyer/ppsclub/the-ppsclub/",
								"targetType": "_self"
							}
						},
						{
							"title": "SolitairePPSClub",
							"linkImage": "$SAA_IMG_URL_PREFIX[]/saar5/images/navigation/ppsclub-krisflyer/pps-club/ppsclub-solitaire-ppsclub.jpg",
							"linkTypeContainer": {
								"link": "/sg/ppsclub-krisflyer/ppsclub/solitaire-ppsclub/",
								"targetType": "_self"
							}
						},
						{
							"title": "PPSRewards",
							"linkImage": "$SAA_IMG_URL_PREFIX[]/saar5/images/navigation/ppsclub-krisflyer/pps-club/navigation-pps-rewards.jpg",
							"linkTypeContainer": {
								"link": "/sg/ppsclub-krisflyer/ppsclub/ppsrewards/",
								"targetType": "_self"
							},
							"userDisplay": [
								"KF"
							]
						},
						{
							"title": "Privilegesataglance",
							"linkImage": "$SAA_IMG_URL_PREFIX[]/saar5/images/navigation/ppsclub-krisflyer/pps-club/navigation-pps-benefits.jpg",
							"linkTypeContainer": {
								"link": "/sg/ppsclub-krisflyer/ppsclub/privileges-at-a-glance/",
								"targetType": "_self"
							},
							"userDisplay": [
								"KF"
							]
						}
					]
				},
				{
					"title": "KrisFlyer",
					"linkImage": "$SAA_IMG_URL_PREFIX[]/saar5/images/navigation/ppsclub-krisflyer/krishflyer/krisflyer.jpg",
					"linkTypeContainer": {
						"link": "/sg/ppsclub-krisflyer/krisflyer/",
						"targetType": "_self"
					},
					"userDisplay": [
						"KF"
					],
					"thirdLevelNavigationContainer": [
						{
							"title": "KrisFlyer",
							"linkImage": "$SAA_IMG_URL_PREFIX[]/saar5/images/navigation/ppsclub-krisflyer/krishflyer/krisflyer-krisflyer.jpg",
							"linkTypeContainer": {
								"link": "/sg/ppsclub-krisflyer/krisflyer/krisflyer/",
								"targetType": "_self"
							}
						},
						{
							"title": "KrisFlyerEliteSilver",
							"linkImage": "$SAA_IMG_URL_PREFIX[]/saar5/images/navigation/ppsclub-krisflyer/krishflyer/krisflyer-elite-silver.jpg",
							"linkTypeContainer": {
								"link": "/sg/ppsclub-krisflyer/krisflyer/krisflyer-elite-silver/",
								"targetType": "_self"
							}
						},
						{
							"title": "KrisFlyerEliteGold",
							"linkImage": "$SAA_IMG_URL_PREFIX[]/saar5/images/navigation/ppsclub-krisflyer/krishflyer/krisflyer-elite-gold.jpg",
							"linkTypeContainer": {
								"link": "/sg/ppsclub-krisflyer/krisflyer/krisflyer-elite-gold/",
								"targetType": "_self"
							}
						},
						{
							"title": "JoinKrisFlyer",
							"linkImage": "$SAA_IMG_URL_PREFIX[]/saar5/images/ppsclub-krisflyer/krishflyer/join-krisflyer-navigation.jpg",
							"linkTypeContainer": {
								"link": "/ppsclub-krisflyer/registration-form/",
								"targetType": "_self"
							}
						}
					]
				},
				{
					"title": "Earnmiles",
					"linkImage": "$SAA_IMG_URL_PREFIX[]/saar5/images/navigation/ppsclub-krisflyer/earn-miles/earn-miles.jpg",
					"linkTypeContainer": {
						"link": "/sg/ppsclub-krisflyer/earn-miles/",
						"targetType": "_self"
					},
					"userDisplay": [
						"KF"
					],
					"thirdLevelNavigationContainer": [
						{
							"title": "Earnwhenyoufly",
							"linkImage": "$SAA_IMG_URL_PREFIX[]/saar5/images/navigation/ppsclub-krisflyer/earn-miles/earn-when-you-fly.jpg",
							"linkTypeContainer": {
								"link": "/sg/ppsclub-krisflyer/earn-miles/earn-when-you-fly/",
								"targetType": "_self"
							}
						},
						{
							"title": "Earnontheground",
							"linkImage": "$SAA_IMG_URL_PREFIX[]/saar5/images/navigation/ppsclub-krisflyer/earn-miles/earn-on-the-ground.jpg",
							"linkTypeContainer": {
								"link": "/sg/ppsclub-krisflyer/earn-miles/earn-on-the-ground/",
								"targetType": "_self"
							}
						},
						{
							"title": "Earnwhenyoushop",
							"linkImage": "$SAA_IMG_URL_PREFIX[]/saar5/images/navigation/ppsclub-krisflyer/earn-miles/earn-when-you-shop.jpg",
							"linkTypeContainer": {
								"link": "/sg/ppsclub-krisflyer/earn-miles/earn-when-you-shop/",
								"targetType": "_self"
							}
						},
						{
							"title": "Claimmissingmiles",
							"linkImage": "$SAA_IMG_URL_PREFIX[]/saar5/images/navigation/ppsclub-krisflyer/earn-miles/claim-missing-miles.jpg",
							"linkTypeContainer": {
								"link": "/sg/ppsclub-krisflyer/earn-miles/claim-missing-miles/",
								"targetType": "_self"
							}
						},
						{
							"title": "Milescalculator:Earn",
							"linkImage": "$SAA_IMG_URL_PREFIX[]/saar5/images/ppsclub-krisflyer/thumbnail-miles-calculator.jpg",
							"linkTypeContainer": {
								"link": "/ppsclub-krisflyer/miles/mileage-calculator/",
								"targetType": "_self"
							}
						}
					]
				},
				{
					"title": "Usemiles",
					"linkImage": "$SAA_IMG_URL_PREFIX[]/saar5/images/navigation/ppsclub-krisflyer/use-miles/use-miles.jpg",
					"linkTypeContainer": {
						"link": "/ppsclub-krisflyer/use-miles/",
						"targetType": "_self"
					},
					"userDisplay": [
						"KF"
					],
					"thirdLevelNavigationContainer": [
						{
							"title": "Redeemmiles",
							"linkImage": "$SAA_IMG_URL_PREFIX[]/saar5/images/navigation/ppsclub-krisflyer/use-miles/redeem-miles.jpg",
							"linkTypeContainer": {
								"link": "/sg/ppsclub-krisflyer/use-miles/redeem-miles/",
								"targetType": "_self"
							}
						},
						{
							"title": "Mixmilesandcash",
							"linkImage": "$SAA_IMG_URL_PREFIX[]/saar5/images/navigation/ppsclub-krisflyer/use-miles/pay-with-miles.jpg",
							"linkTypeContainer": {
								"link": "/sg/ppsclub-krisflyer/use-miles/pay-with-miles/",
								"targetType": "_self"
							}
						},
						{
							"title": "Donatemiles",
							"linkImage": "$SAA_IMG_URL_PREFIX[]/saar5/images/navigation/ppsclub-krisflyer/use-miles/navigation-donate-miles.jpg",
							"linkTypeContainer": {
								"link": "/sg/ppsclub-krisflyer/use-miles/donate-miles/",
								"targetType": "_self"
							}
						},
						{
							"title": "Otherwaystoredeemmiles",
							"linkImage": "$SAA_IMG_URL_PREFIX[]/saar5/images/navigation/ppsclub-krisflyer/use-miles/krisshop.jpg",
							"linkTypeContainer": {
								"link": "/sg/ppsclub-krisflyer/use-miles/otherways-to-redeem-miles/",
								"targetType": "_self"
							}
						},
						{
							"title": "Milescalculator:Redeem",
							"linkImage": "$SAA_IMG_URL_PREFIX[]/saar5/images/ppsclub-krisflyer/thumbnail-miles-calculator.jpg",
							"linkTypeContainer": {
								"link": "/ppsclub-krisflyer/miles/mileage-calculator/?calculator=redeemMiles",
								"targetType": "_self"
							},
							"userDisplay": [
								"KF"
							]
						}
					]
				},
				{
					"title": "Formsandfees",
					"linkImage": "$SAA_IMG_URL_PREFIX[]/saar5/images/ppsclub_krisflyer/forms-and-fees-navigation-thumbnail.jpg",
					"linkTypeContainer": {
						"link": "/sg/ppsclub-krisflyer/forms-and-fees/",
						"targetType": "_self"
					},
					"userDisplay": [
						"KF"
					],
					"thirdLevelNavigationContainer": [
						{
							"title": "Forms",
							"linkImage": "$SAA_IMG_URL_PREFIX[]/saar5/images/ppsclub_krisflyer/forms-navigation-thumbnail.jpg",
							"linkTypeContainer": {
								"link": "/ppsclub-krisflyer/profile/forms/",
								"targetType": "_self"
							}
						},
						{
							"title": "Servicefees",
							"linkImage": "$SAA_IMG_URL_PREFIX[]/saar5/images/ppsclub_krisflyer/service-fees-navigation-thumbnail.jpg",
							"linkTypeContainer": {
								"link": "/sg/ppsclub-krisflyer/forms-and-fees/service-fees/",
								"targetType": "_self"
							}
						}
					]
				}
			],
			"l4l5NavigationContainer": {
				"title": "Myaccount",
				"userDisplay": [
					"KF"
				],
				"fourthLevelSubNavContainer": [
					{
						"title": "AccountSummary",
						"linkTypeContainer": {
							"link": "/ppsclub-krisflyer/account-summary/",
							"targetType": "_self"
						},
						"userDisplay": [
							"KF",
							"ARO"
						]
					},
					{
						"title": "Bookflights",
						"linkTypeContainer": {
							"link": "/ppsclub-krisflyer/flightsearch/",
							"targetType": "_self"
						},
						"userDisplay": [
							"KF",
							"ARO"
						]
					},
					{
						"title": "PPSClubExclusives",
						"linkTypeContainer": {
							"link": "/ppsclub-krisflyer/ppsclubexclusives/priority-magazine/",
							"targetType": "_self"
						},
						"userDisplay": [
							"KF"
						],
						"fifthLevelSubNavContainer": [
							{
								"title": "PPSClubReserves",
								"linkTypeContainer": {
									"link": "/ppsclub-krisflyer/ppsclubexclusives/pps-club-reserves/",
									"targetType": "_self"
								}
							},
							{
								"title": "Prioritymagazine",
								"linkTypeContainer": {
									"link": "/ppsclub-krisflyer/ppsclubexclusives/priority-magazine/",
									"targetType": "_self"
								}
							},
							{
								"title": "Merchantoffers",
								"linkTypeContainer": {
									"link": "/ppsclub-krisflyer/ppsclubexclusives/merchant-offers/",
									"targetType": "_self"
								}
							},
							{
								"title": "Guides",
								"linkTypeContainer": {
									"link": "/ppsclub-krisflyer/ppsclubexclusives/guides/",
									"targetType": "_self"
								}
							}
						]
					},
					{
						"title": "Miles",
						"linkTypeContainer": {
							"link": "/ppsclub-krisflyer/miles/how-to-earn/",
							"targetType": "_self"
						},
						"userDisplay": [
							"KF",
							"ARO"
						],
						"fifthLevelSubNavContainer": [
							{
								"title": "HowToEarn",
								"linkTypeContainer": {
									"link": "/ppsclub-krisflyer/miles/how-to-earn/",
									"targetType": "_self"
								}
							},
							{
								"title": "HowToUse",
								"linkTypeContainer": {
									"link": "/ppsclub-krisflyer/miles/how-to-use/",
									"targetType": "_self"
								}
							},
							{
								"title": "Statements",
								"linkTypeContainer": {
									"link": "/ppsclub-krisflyer/miles/statements/",
									"targetType": "_self"
								}
							},
							{
								"title": "MilesValidity",
								"linkTypeContainer": {
									"link": "/ppsclub-krisflyer/miles/expiring-miles/",
									"targetType": "_self"
								}
							},
							{
								"title": "ClaimMissingMiles",
								"linkTypeContainer": {
									"link": "/ppsclub-krisflyer/miles/claim-missing-miles/",
									"targetType": "_self"
								}
							},
							{
								"title": "Milescalculator",
								"linkTypeContainer": {
									"link": "/ppsclub-krisflyer/miles/mileage-calculator/",
									"targetType": "_self"
								},
								"userDisplay": [
									"KF"
								]
							}
						]
					},
					{
						"title": "Bookings",
						"linkTypeContainer": {
							"link": "/ppsclub-krisflyer/bookings/upcoming-flights/",
							"targetType": "_self"
						},
						"fifthLevelSubNavContainer": [
							{
								"title": "Upcomingflights",
								"linkTypeContainer": {
									"link": "/ppsclub-krisflyer/bookings/upcoming-flights/",
									"targetType": "_self"
								}
							},
							{
								"title": "Flighthistory",
								"linkTypeContainer": {
									"link": "/ppsclub-krisflyer/bookings/flight-history/",
									"targetType": "_self"
								}
							},
							{
								"title": "Ticketsandreceipts",
								"linkTypeContainer": {
									"link": "/ppsclub-krisflyer/bookings/tickets-and-receipts/",
									"targetType": "_self"
								}
							}
						]
					},
					{
						"title": "Check-ins",
						"linkTypeContainer": {
							"link": "/ppsclub-krisflyer/checkin-online/",
							"targetType": "_self"
						},
						"userDisplay": [
							"ARO"
						]
					},
					{
						"title": "Profile",
						"linkTypeContainer": {
							"link": "/ppsclub-krisflyer/profile/personal-details/",
							"targetType": "_self"
						},
						"userDisplay": [
							"KF",
							"ARO"
						],
						"travelType": "corporateTravel",
						"fifthLevelSubNavContainer": [
							{
								"title": "Personaldetails",
								"linkTypeContainer": {
									"link": "/ppsclub-krisflyer/profile/personal-details/",
									"targetType": "_self"
								}
							},
							{
								"title": "DigitalWallet",
								"linkTypeContainer": {
									"link": "/ppsclub-krisflyer/profile/kfwallet/",
									"targetType": "_self"
								}
							},
							{
								"title": "Membershipcard",
								"linkTypeContainer": {
									"link": "/ppsclub-krisflyer/profile/membership-card/",
									"targetType": "_self"
								}
							},
							{
								"title": "Security",
								"linkTypeContainer": {
									"link": "/ppsclub-krisflyer/profile/security/",
									"targetType": "_self"
								}
							},
							{
								"title": "Preferences",
								"linkTypeContainer": {
									"link": "/ppsclub-krisflyer/profile/preferences/",
									"targetType": "_self"
								}
							},
							{
								"title": "Redemptionnominees",
								"linkTypeContainer": {
									"link": "/ppsclub-krisflyer/profile/redemption-nominees/",
									"targetType": "_self"
								}
							},
							{
								"title": "Partnerprogrammes",
								"linkTypeContainer": {
									"link": "/ppsclub-krisflyer/profile/partner-programmes/",
									"targetType": "_self"
								}
							},
							{
								"title": "Forms",
								"linkTypeContainer": {
									"link": "/ppsclub-krisflyer/profile/forms/",
									"targetType": "_self"
								}
							}
						]
					},
					{
						"title": "Profile",
						"linkTypeContainer": {
							"link": "/sq-corporate-landing/ct-personal-details/",
							"targetType": "_self"
						},
						"userDisplay": [
							"KF",
							"SQC"
						],
						"fifthLevelSubNavContainer": [
							{
								"title": "Personaldetails",
								"linkTypeContainer": {
									"link": "/sq-corporate-landing/ct-personal-details/",
									"targetType": "_self"
								}
							},
							{
								"title": "Security",
								"linkTypeContainer": {
									"link": "/ppsclub-krisflyer/profile/security/",
									"targetType": "_self"
								}
							},
							{
								"title": "Preferences",
								"linkTypeContainer": {
									"link": "/ppsclub-krisflyer/profile/preferences/",
									"targetType": "_self"
								}
							},
							{
								"title": "Redemptionnominees",
								"linkTypeContainer": {
									"link": "/ppsclub-krisflyer/profile/redemption-nominees/",
									"targetType": "_self"
								}
							},
							{
								"title": "Partnerprogrammes",
								"linkTypeContainer": {
									"link": "/ppsclub-krisflyer/profile/partner-programmes/",
									"targetType": "_self"
								}
							},
							{
								"title": "Forms",
								"linkTypeContainer": {
									"link": "/ppsclub-krisflyer/profile/forms/",
									"targetType": "_self"
								}
							}
						]
					},
					{
						"title": "Messages",
						"linkTypeContainer": {
							"link": "/ppsclub-krisflyer/profile/messages/",
							"targetType": "_self"
						}
					}
				]
			}
		},
		{
			"title": "For Businesses",
			"linkTypeContainer": {
				"link": "/sg/for-businesses/",
				"targetType": "_self"
			},
			"secondLevelNavigationContainer": {
				"title": "TravelProgramme",
				"linkImage": "$SAA_IMG_URL_PREFIX[]/saar5/images/banner/banner-news-releases.jpg",
				"linkTypeContainer": {
					"link": "/sq-corporate/travel-programme/",
					"targetType": "_self"
				},
				"userDisplay": [
					"CTM"
				],
				"travelType": "corporateTravel,travelManager",
				"thirdLevelNavigationContainer": [
					{
						"title": "Businessrewardsprogrammes",
						"linkImage": "$SAA_IMG_URL_PREFIX[]/saar5/images/sq-corporate/miceimages/thumbnail-business-rewards.jpg",
						"linkTypeContainer": {
							"link": "/sg/sq-corporate/",
							"targetType": "_self"
						},
						"userDisplay": [
							"KF"
						]
					},
					{
						"title": "MICEtravelprogramme",
						"linkImage": "$SAA_IMG_URL_PREFIX[]/saar5/images/sq-corporate/miceimages/thumbnail-MICE.jpg",
						"linkTypeContainer": {
							"link": "/sg/sq-corporate/travel-programme/mice-travel/",
							"targetType": "_self"
						},
						"userDisplay": [
							"KF"
						]
					}
				]
			},
			"l4l5NavigationContainer": {
				"title": "SQCorporate",
				"userDisplay": [
					"CTM"
				],
				"fourthLevelSubNavContainer": [
					{
						"title": "Accountsummary",
						"linkTypeContainer": {
							"link": "/corporateBooking-flow.form",
							"targetType": "_self"
						},
						"userDisplay": [
							"CTM"
						]
					},
					{
						"title": "Bookflights",
						"linkTypeContainer": {
							"link": "/sq-corporate/flightsearch/",
							"targetType": "_self"
						},
						"userDisplay": [
							"CTM"
						]
					},
					{
						"title": "Bookings",
						"linkTypeContainer": {
							"link": "/sq-corporate-landing/upcoming-flights-ctm/",
							"targetType": "_self"
						},
						"userDisplay": [
							"CTM"
						],
						"fifthLevelSubNavContainer": [
							{
								"title": "Upcomingflights",
								"linkTypeContainer": {
									"link": "/sq-corporate-landing/upcoming-flights-ctm/",
									"targetType": "_self"
								}
							},
							{
								"title": "Flighthistory",
								"linkTypeContainer": {
									"link": "/sq-corporate-landing/booking-history-ctm/",
									"targetType": "_self"
								}
							}
						]
					},
					{
						"title": "Points",
						"linkTypeContainer": {
							"link": "/sq-corporate-landing/miles/statements-points/",
							"targetType": "_self"
						},
						"userDisplay": [
							"SME"
						],
						"fifthLevelSubNavContainer": [
							{
								"title": "Statements",
								"linkTypeContainer": {
									"link": "/sq-corporate-landing/miles/statements-points/",
									"targetType": "_self"
								},
								"userDisplay": [
									"KF"
								]
							},
							{
								"title": "Expiringpoints",
								"linkTypeContainer": {
									"link": "/sq-corporate-landing/miles/expiring-points/",
									"targetType": "_self"
								},
								"userDisplay": [
									"KF"
								]
							},
							{
								"title": "Claimmissingpoints",
								"linkTypeContainer": {
									"link": "/sq-corporate-landing/miles/claim-missing-miles/",
									"targetType": "_self"
								},
								"userDisplay": [
									"SME"
								]
							}
						]
					},
					{
						"title": "Travellers",
						"linkTypeContainer": {
							"link": "/sq-corporate-landing/manage-travelmanager-page/",
							"targetType": "_self"
						},
						"userDisplay": [
							"CTM"
						]
					},
					{
						"title": "Expenditure",
						"linkTypeContainer": {
							"link": "/sq-corporate-landing/corporate-fares-reports/",
							"targetType": "_self"
						},
						"userDisplay": [
							"KF",
							"CT"
						],
						"fifthLevelSubNavContainer": [
							{
								"title": "Corporatefaresheets",
								"linkTypeContainer": {
									"link": "/sq-corporate-landing/corporate-fares-reports/",
									"targetType": "_self"
								}
							},
							{
								"title": "ExpenditureStatements",
								"linkTypeContainer": {
									"link": "/sq-corporate-landing/performance-reports/",
									"targetType": "_self"
								},
								"": [
									"SME"
								]
							}
						]
					},
					{
						"title": "Settings",
						"linkTypeContainer": {
							"link": "/sq-corporate-landing/company-details/",
							"targetType": "_self"
						},
						"": [
							"CTM"
						],
						"fifthLevelSubNavContainer": [
							{
								"title": "Companydetails",
								"linkTypeContainer": {
									"link": "/sq-corporate-landing/company-details/",
									"targetType": "_self"
								},
								"": [
									"CTM"
								]
							},
							{
								"title": "Travelmanager'sdetails",
								"linkTypeContainer": {
									"link": "/sq-corporate-landing/personal-details/",
									"targetType": "_self"
								}
							},
							{
								"title": "Accountsecurity",
								"linkTypeContainer": {
									"link": "/sq-corporate-landing/personal-details/sq-change-pin/",
									"targetType": "_self"
								}
							}
						]
					}
				]
			}
		}
	]
}