{
  "title": "Mr",
  "firstName": "UTST",
  "lastName": "EEETESTG",
  "paxType": "Adult",
  "gender": "M",
  "kfNumber": "8987005314",
  "ffpMiles": "456000",
  "currentTier": "Life PPS",
  "tierCode": "K",
  "userType": "KF",
  "ppsValue": {
    "currency": "S$",
    "currentValue": "29500",
    "requalifyValue": "20500",
    "requalifyDate": "2007-11-06T16:34:41.000Z",
    "requiredValue": "20500",
    "requiredDate": "2007-11-06T16:34:41.000Z"
  },
  "dob": "2007-11-06T16:34:41.000Z",
  "passportNumber": "F12345678",
  "passportExpiryDate": "2007-11-06T16:34:41.000Z",
  "nationality": "SG",
  "countryOfResidence": "US",
  "nomineeList": [
    {
      "title": "Miss",
      "firstName": "Test",
      "lastName": "TestABC",
      "paxType": "Child",
      "gender": "F",
      "dob": "2007-11-06T16:34:41.000Z",
      "passportNumber": "E1357908K",
      "passportExpiryDate": "2007-11-06T16:34:41.000Z",
      "passportCountryOfIssuance": "SG"
    },
    {
      "title": "Mdm",
      "firstName": "CHETAN",
      "lastName": "POSTHENDRICKSTEST",
      "paxType": "Adult",
      "gender": "F",
      "kfNumber": "8987005638",
      "dob": "2007-11-06T16:34:41.000Z",
      "passportNumber": "E123456D",
      "passportCountryOfIssuance": "SG"
    },
    {
      "title": "Mr",
      "firstName": "Testingon",
      "lastName": "Tan",
      "paxType": "Adult",
      "gender": "M",
      "dob": "2007-11-06T16:34:41.000Z",
      "passportNumber": "E1234",
      "passportCountryOfIssuance": "AF"
    },
    {
      "title": "Mr",
      "firstName": "Test",
      "lastName": "XYZ Test",
      "paxType": "Adult",
      "gender": "M",
      "dob": "2007-11-06T16:34:41.000Z",
      "passportNumber": "ASFSGH564784",
      "passportCountryOfIssuance": "SG"
    }
  ],
  "email": "saa_devmail@sqdev.com.sg",
  "phoneNumber": [
    {
      "countryCode": "65",
      "phoneNumber": "12345678",
      "areaCode": "023456",
      "phoneType": "MOBILE"
    },
    {
      "countryCode": "65",
      "phoneNumber": "12345678",
      "areaCode": "023456",
      "phoneType": "BUSINESS"
    },
    {
      "countryCode": "65",
      "phoneNumber": "12345678",
      "areaCode": "023456",
      "phoneType": "HOME"
    }
  ],
  "offpList": [
    {
      "programCode": "LH",
      "number": "2986574128"
    },
    {
      "programCode": "AC",
      "number": "198732165425"
    }
  ]
}