{
    "loadModules": [
        "Homepage",
        "SeatSelection",
        "MP",
        "CIB"
    ],
    "pageFlow": {
        "Homepage": [
            "home",
            "home-loggedin"
        ],
        "SeatSelection": [
            "seat-selection",
            "seat-selection-pey"
        ],
        "MP": [
            "payment"
        ],
        "CIB": [
            "fare-calendar",
            "passenger-non-us-bound",
            "passenger-us-bound"
        ]
    },
    "vendors": [
        "lodash",
        "./src/vendors/prototypes.js"
    ]
}
