<?xml version="1.0" encoding="UTF-8"?>
<svg width="8px" height="6px" viewBox="0 0 8 6" version="1.1" xmlns="http://www.w3.org/2000/svg" xmlns:xlink="http://www.w3.org/1999/xlink">
    <!-- Generator: Sketch 51.1 (57501) - http://www.bohemiancoding.com/sketch -->
    <title>icon/chevron</title>
    <desc>Created with Sketch.</desc>
    <defs>
        <path d="M3.99866,6.11448 C3.87386,6.11448 3.75466,6.06468 3.66726,5.97588 L0.13386,2.39168 C-0.04654,2.20868 -0.04434,1.91428 0.13846,1.73388 C0.32206,1.55348 0.61566,1.55568 0.79646,1.73868 L3.99866,4.98688 L7.20386,1.73848 C7.38406,1.55528 7.67906,1.55388 7.86146,1.73408 C8.04446,1.91448 8.04646,2.20908 7.86606,2.39188 L4.32966,5.97608 C4.24246,6.06468 4.12286,6.11448 3.99866,6.11448" id="path-1"></path>
    </defs>
    <g id="Symbols" stroke="none" stroke-width="1" fill="none" fill-rule="evenodd">
        <g id="nav/main" transform="translate(-1142.000000, -18.000000)">
            <g id="Group-4" transform="translate(315.000000, 15.000000)">
                <g id="Group" transform="translate(676.000000, 0.000000)">
                    <g id="icon/chevron-Copy-1" transform="translate(151.000000, 2.000000)">
                        <mask id="mask-2" fill="white">
                            <use xlink:href="#path-1"></use>
                        </mask>
                        <use id="Fill-1" fill="#000000" fill-rule="evenodd" xlink:href="#path-1"></use>
                        <g id="color/white" mask="url(#mask-2)" fill="#FFFFFF" fill-rule="evenodd">
                            <rect id="Rectangle-3" x="0" y="0" width="8" height="8"></rect>
                        </g>
                    </g>
                </g>
            </g>
        </g>
    </g>
</svg>