<?xml version="1.0" encoding="UTF-8"?>
<svg width="15px" height="14px" viewBox="0 0 15 14" version="1.1" xmlns="http://www.w3.org/2000/svg" xmlns:xlink="http://www.w3.org/1999/xlink">
    <!-- Generator: Sketch 51.1 (57501) - http://www.bohemiancoding.com/sketch -->
    <title>Shape</title>
    <desc>Created with Sketch.</desc>
    <defs></defs>
    <g id="Mobile---Booking-widget" stroke="none" stroke-width="1" fill="none" fill-rule="evenodd">
        <g id="m_00b2_Home---SMII_Existing-account" transform="translate(-116.000000, -527.000000)" fill="#FFFFFF" fill-rule="nonzero">
            <g id="Group-3" transform="translate(14.000000, 416.000000)">
                <g id="Group-5">
                    <g id="linkedin" transform="translate(0.000000, 100.000000)">
                        <g id="Group-8" transform="translate(102.000000, 11.000000)">
                            <path d="M3.03130435,1.52173913 C3.03130435,2.36234783 2.35565217,3.04347826 1.52173913,3.04347826 C0.687826087,3.04347826 0.012173913,2.36234783 0.012173913,1.52173913 C0.012173913,0.68173913 0.687826087,0 1.52173913,0 C2.35565217,0 3.03130435,0.68173913 3.03130435,1.52173913 Z M3.04347826,4.26086957 L0,4.26086957 L0,14 L3.04347826,14 L3.04347826,4.26086957 Z M7.90208696,4.26086957 L4.87808696,4.26086957 L4.87808696,14 L7.90269565,14 L7.90269565,8.88756522 C7.90269565,6.04495652 11.5725217,5.81243478 11.5725217,8.88756522 L11.5725217,14 L14.6086957,14 L14.6086957,7.83330435 C14.6086957,3.03678261 9.17791304,3.21147826 7.90208696,5.5726087 L7.90208696,4.26086957 Z" id="Shape"></path>
                        </g>
                    </g>
                </g>
            </g>
        </g>
    </g>
</svg>