{
  "seatMapDetails": {
    "allFlightSegmentDetails": [
      {
        "departureCity": "SYD",
        "departureCityCode": "Sydney",
        "arrivalCity": "SIN",
        "arrivalCityCode": "Singapore",
        "carrierCode": "SQ",
        "flightNumber": "212",
        "cabinClass": "First",
        "selected": true,
        "disabled": false
      }
    ],
    "dictionary": {
      "airline": {
        "SQ": "Singapore Airlines"
      },
      "aircraft": {
        "77W": "Boeing 777-300ER"
      },
      "airport": {
        "SIN": {
          "code": "SIN",
          "name": "Changi Intl",
          "cityCode": "SIN",
          "cityName": "Singapore",
          "countryCode": "SGP"
        },
        "SYD": {
          "code": "SYD",
          "name": "Kingsford Smith",
          "cityCode": "SYD",
          "cityName": "Sydney",
          "countryCode": "AUS"
        }
      },
      "flight": {
        "SEG-212-SYDSIN": {
          "flightNumber": "212",
          "originAirportCode": "SYD",
          "destinationAirportCode": "SIN",
          "departureTerminal": "1",
          "arrivalTerminal": "0",
          "departureDateTime": "2018-10-26T08:55:00.000+08:00",
          "arrivalDateTime": "2018-10-26T14:15:00.000+08:00",
          "operatingAirlineCode": "SQ",
          "marketingAirlineCode": "SQ",
          "aircraftCode": "77W"
        }
      },
      "currency": {},
      "facility": {
        "S": "Stairs",
        "D": "Accessible Lavatory",
        "G": "Galley",
        "L": "Lavatory"
      },
      "seatType": {
        "P": "Preferred",
        "S": "Standard",
        "F": "Forward Zone"
      },
      "seatCharacteristic": {
        "P": "Double bed Seat",
        "A": "Asile Seat",
        "B": "Bassinet Seat",
        "R": "Right Seat",
        "C": "Chargeable Seat",
        "E": "Exit Seat",
        "W": "Window Seat",
        "H": "Handicap Seat",
        "K": "Windowless Seat",
        "L": "Left Seat",
        "M": "Middle Seat",
        "O": "Bubble Seat"
      },
      "country": {
        "SGP": "Singapore",
        "AUS": "Australia"
      },
      "boundDetails": {
        "1": {
          "boundCode": "SYD-SIN",
          "boundName": "Sydney to Singapore",
          "segments": [
            "SYD-SIN (SQ 212)"
          ]
        }
      },
      "seatStaticInfo": {
        "P": "Extra Legroom Seats are non-refundable and non-exchangeable",
        "F": "Forward Zone Seats are non-refundable and non-exchangeable",
        "S": "Standard Zone Seats are non-refundable and non-exchangeable"
      }
    },
    "data": {
      "recordLocator": "PSZ7UU",
      "passenger": [
        {
          "passengerID": "1",
          "lastName": "Nathan",
          "firstName": "Arul",
          "title": "MR",
          "passengerType": "ADT"
        }
      ],
      "flight": {
        "flight": "SEG-212-SYDSIN",
        "flightID": "1",
        "flightNumber": "212",
        "sellingClass": "F",
        "cabinDescription": "First"
      },
      "compartment": [
        {
          "designator": "C0",
          "location": "M",
          "startRow": "1",
          "endRow": "1",
          "column": [
            {
              "designator": "A",
              "characteristics": "WA",
              "alignment": "L"
            },
            {
              "designator": "C",
              "characteristics": "A",
              "alignment": "C"
            },
            {
              "designator": "D",
              "characteristics": "A",
              "alignment": "C"
            },
            {
              "designator": "F",
              "characteristics": "WA",
              "alignment": "R"
            }
          ],
          "alignment": {
            "L": [
              "A"
            ],
            "C": [
              "C",
              "D"
            ],
            "R": [
              "F"
            ]
          }
        }
      ],
      "row": [
        {
          "number": "1",
          "facility": [
            {
              "column": "D",
              "type": "G"
            },
            {
              "column": "F",
              "type": "G"
            }
          ]
        },
        {
          "number": "1",
          "facility": [
            {
              "location": "L",
              "type": "E"
            },
            {
              "location": "C",
              "type": "G"
            },
            {
              "location": "R",
              "type": "E"
            }
          ]
        },
        {
          "number": "1",
          "facility": [
            {
              "column": "A",
              "type": "L"
            },
            {
              "column": "F",
              "type": "L"
            }
          ]
        },
        {
          "number": "1",
          "seat": [
            {
              "column": "A",
              "characteristics": "WA"
            },
            {
              "column": "C",
              "characteristics": "A"
            },
            {
              "column": "D",
              "characteristics": "A"
            },
            {
              "column": "F",
              "characteristics": "WA"
            }
          ]
        }
      ]
    }
  }
}