<?xml version="1.0" encoding="UTF-8"?>
<svg width="20px" height="17px" viewBox="0 0 20 17" version="1.1" xmlns="http://www.w3.org/2000/svg" xmlns:xlink="http://www.w3.org/1999/xlink">
    <!-- Generator: Sketch 51.1 (57501) - http://www.bohemiancoding.com/sketch -->
    <title>Page 1</title>
    <desc>Created with Sketch.</desc>
    <defs>
        <polygon id="path-1" points="0 17 20 17 20 0 0 0"></polygon>
    </defs>
    <g id="Symbols" stroke="none" stroke-width="1" fill="none" fill-rule="evenodd">
        <g id="icon/baggage">
            <g id="Page-1">
                <path d="M7,15.4997299 C7,16.3273906 6.32763276,17 5.49918992,17 C4.67074707,17 4,16.3273906 4,15.4997299 C4,14.6704484 4.67074707,14 5.49918992,14 C6.32763276,14 7,14.6704484 7,15.4997299" id="Fill-1" fill="#00266B"></path>
                <path d="M16,15.4997299 C16,16.3273906 15.3284711,17 14.4997299,17 C13.6704484,17 13,16.3273906 13,15.4997299 C13,14.6704484 13.6704484,14 14.4997299,14 C15.3284711,14 16,14.6704484 16,15.4997299" id="Fill-3" fill="#00266B"></path>
                <mask id="mask-2" fill="white">
                    <use xlink:href="#path-1"></use>
                </mask>
                <g id="Clip-6"></g>
                <path d="M7.88164019,3 L11.0978053,3 L11.0978053,1.06654522 L7.88164019,1.06654522 L7.88164019,3 Z M12,3 L18.584,3 C19.3625,3 20,3.6154132 20,4.36801427 L20,14.6319857 C20,15.3841037 19.3625,16 18.584,16 L1.4155,16 C0.6375,16 0,15.3841037 0,14.6319857 L0,4.36801427 C0,3.6154132 0.6375,3 1.4155,3 L7,3 L7.00000425,1.12015666 C6.99822046,0.435012296 7.55877503,-0.0027324893 8.22769456,0.00218599144 C8.21788374,-0.0027324893 10.7838591,0.00218599144 10.7838591,0.00218599144 C11.4536705,-0.0027324893 12.0057521,0.435012296 11.9999548,1.12015666 L12,3 Z M17.26,6.67364001 C18.0385,6.67364001 18.6755,6.5248588 18.6755,6.34178062 C18.6755,6.15918549 18.0385,6.00992122 17.26,6.00992122 L2.74,6.00992122 C1.9615,6.00992122 1.3245,6.15918549 1.3245,6.34178062 C1.3245,6.5248588 1.9615,6.67364001 2.74,6.67364001 L17.26,6.67364001 Z M17.26,9.83089328 C18.0385,9.83089328 18.6755,9.68259512 18.6755,9.49951694 C18.6755,9.31643876 18.0385,9.16765755 17.26,9.16765755 L2.74,9.16765755 C1.9615,9.16765755 1.3245,9.31643876 1.3245,9.49951694 C1.3245,9.68259512 1.9615,9.83089328 2.74,9.83089328 L17.26,9.83089328 Z M17.26,12.9886296 C18.0385,12.9886296 18.6755,12.8398484 18.6755,12.6567702 C18.6755,12.473692 18.0385,12.3249108 17.26,12.3249108 L2.74,12.3249108 C1.9615,12.3249108 1.3245,12.473692 1.3245,12.6567702 C1.3245,12.8398484 1.9615,12.9886296 2.74,12.9886296 L17.26,12.9886296 Z" id="Combined-Shape" fill="#00266B" mask="url(#mask-2)"></path>
            </g>
        </g>
    </g>
</svg>